Choose Mock Community Composition
…
CONTROL Whatever is in the negative control should be removed, as well as any Chordata DNA (previous scripts found this to be kangaroo, some misc Mammalia)

control_dat <- dat2 %>% filter(Group=="Control")

unique(control_dat$taxon)

## [1] "Carcinus maenas"      "Planosiphon gracilis" "Metazoa"             
## [4] "Flavobacterium"

dat_filter <- dat2 %>%
  filter(!(taxon %in% unique(control_dat$taxon)))

dat_filter %>% filter(phylum=="Chordata") %>% dplyr::select(SampleID,dataset,rank,taxon)

## # A tibble: 39 x 4
##    SampleID       dataset rank   taxon   
##    <chr>          <chr>   <chr>  <chr>   
##  1 WACO_2021_001a merged  class  Mammalia
##  2 WACO_2021_001a merged  phylum Chordata
##  3 WACO_2021_001a merged  class  Mammalia
##  4 WACO_2021_001a merged  phylum Chordata
##  5 WACO_2021_001a merged  class  Mammalia
##  6 WACO_2021_001a merged  phylum Chordata
##  7 WACO_2021_001a merged  class  Mammalia
##  8 WACO_2021_001a merged  class  Mammalia
##  9 WACO_2021_001a merged  phylum Chordata
## 10 WACO_2021_001a merged  class  Mammalia
## # ... with 29 more rows
…
